…
```r
miss_var_summary(surgery)
```

```
## # A tibble: 25 × 3
##    variable          n_miss pct_miss
##    <chr>              <int>    <dbl>
##  1 bmi                 3290 10.3    
##  2 race                 480  1.50   
##  3 asa_status             8  0.0250 
##  4 gender                 3  0.00937
##  5 age                    2  0.00625
##  6 ahrq_ccs               0  0      
##  7 baseline_cancer        0  0      
##  8 baseline_cvd           0  0      
##  9 baseline_dementia      0  0      
## 10 baseline_diabetes      0  0      
## # … with 15 more rows
```
…
7. (4 points) What are the 5 procedures associated with highest risk of 30-day mortality AND how do they compare with the 5 procedures with highest risk of complication? (hint: no need for a plot here)


```r
surgery %>% 
  select(ahrq_ccs,ccsmort30rate) %>% 
  group_by(ahrq_ccs) %>% 
  summarise(highest_ccsmort=max(ccsmort30rate)) %>% 
  arrange(desc(highest_ccsmort))
```

```
## # A tibble: 23 × 2
##    ahrq_ccs                                             highest_ccsmort
##    <chr>                                                          <dbl>
##  1 Colorectal resection                                         0.0167 
##  2 Small bowel resection                                        0.0129 
##  3 Gastrectomy; partial and total                               0.0127 
##  4 Endoscopy and endoscopic biopsy of the urinary tract         0.00811
##  5 Spinal fusion                                                0.00742
##  6 Hip replacement; total and partial                           0.00740
##  7 Genitourinary incontinence procedures                        0.00433
##  8 <Other>                                                      0.00425
##  9 Other hernia repair                                          0.00403
## 10 Arthroplasty knee                                            0.00296
## # … with 13 more rows
```



```r
surgery %>% 
  select(ahrq_ccs,ccscomplicationrate) %>% 
  group_by(ahrq_ccs) %>% 
  summarise(highest_ccscom=max(ccscomplicationrate)) %>% 
  arrange(desc(highest_ccscom))
```

```
## # A tibble: 23 × 2
##    ahrq_ccs                                  highest_ccscom
##    <chr>                                              <dbl>
##  1 Small bowel resection                              0.466
##  2 Colorectal resection                               0.312
##  3 Nephrectomy; partial or complete                   0.197
##  4 Gastrectomy; partial and total                     0.190
##  5 Spinal fusion                                      0.183
##  6 Hysterectomy; abdominal and vaginal                0.151
##  7 Other hernia repair                                0.143
##  8 Oophorectomy; unilateral and bilateral             0.135
##  9 Open prostatectomy                                 0.109
## 10 Laminectomy; excision intervertebral disc          0.106
## # … with 13 more rows
```
…
